Homework 5 Poker

Total Score:            80 pts

Compiles                20 pts

Comments                10 pts

Checks for Integer      10 pts

-10: doesn't check

Checks for duplicates   10 pts

-10: doesn't check

Program works           50 pts
